Top_testbench.vcd
$date
	Thu Jan 29 09:22:49 2026
$end
$version
	Icarus Verilog
$end
$timescale
	1ps
$end
$scope module Top_testbench $end
$var wire 6 ! led [5:0] $end
$var reg 1 " button_in $end
$var reg 1 # sys_clk $end
$var reg 1 $ sys_rst_n $end
$scope module uut $end
$var wire 1 " button_in $end
$var wire 1 # sys_clk $end
$var wire 1 $ sys_rst_n $end
$var wire 6 % led [5:0] $end
$var wire 1 & cpu_clk $end
$scope module clk_div $end
$var wire 1 # clk_in $end
$var wire 1 $ reset_in $end
$var parameter 25 ' THRESHOLD $end
$var reg 1 & clk_out $end
$var reg 25 ( counter [24:0] $end
$upscope $end
$scope module cpu_inst $end
$var wire 1 & clk $end
$var wire 1 ) dmem_write_enable $end
$var wire 1 " i_button $end
$var wire 1 * is_branch_instruction $end
$var wire 1 $ reset $end
$var wire 1 + stall $end
$var wire 5 , rs2 [4:0] $end
$var wire 5 - rs1 [4:0] $end
$var wire 32 . reg_read_data2 [31:0] $end
$var wire 32 / reg_read_data1 [31:0] $end
$var wire 5 0 rd [4:0] $end
$var wire 7 1 opcode [6:0] $end
$var wire 32 2 mem_read_data [31:0] $end
$var wire 1 3 is_less_unsigned $end
$var wire 1 4 is_less_signed $end
$var wire 1 5 is_led_access $end
$var wire 1 6 is_equal $end
$var wire 32 7 instruction [31:0] $end
$var wire 32 8 imm [31:0] $end
$var wire 7 9 funct7 [6:0] $end
$var wire 3 : funct3 [2:0] $end
$var wire 32 ; current_pc [31:0] $end
$var wire 32 < alu_result [31:0] $end
$var wire 4 = alu_control [3:0] $end
$var parameter 32 > BUTTON_ADDRESS $end
$var parameter 32 ? LED_ADDRESS $end
$var reg 32 @ Ex_Mem_ALU_Result [31:0] $end
$var reg 1 A Ex_Mem_Mem_Read $end
$var reg 1 B Ex_Mem_Mem_Write $end
$var reg 1 C Ex_Mem_Mem_to_Reg $end
$var reg 1 D Ex_Mem_Reg_Write $end
$var reg 5 E Ex_Mem_rd_index [4:0] $end
$var reg 32 F Ex_Mem_rs2_data [31:0] $end
$var reg 4 G ID_Ex_ALU_Control [3:0] $end
$var reg 1 H ID_Ex_ALU_Src $end
$var reg 2 I ID_Ex_ALU_Src_A [1:0] $end
$var reg 1 J ID_Ex_Is_Link $end
$var reg 1 K ID_Ex_Mem_Read $end
$var reg 1 L ID_Ex_Mem_Write $end
$var reg 1 M ID_Ex_Mem_to_Reg $end
$var reg 32 N ID_Ex_PC [31:0] $end
$var reg 1 O ID_Ex_Reg_Write $end
$var reg 32 P ID_Ex_imm [31:0] $end
$var reg 5 Q ID_Ex_rd_index [4:0] $end
$var reg 32 R ID_Ex_rs1_data [31:0] $end
$var reg 5 S ID_Ex_rs1_index [4:0] $end
$var reg 32 T ID_Ex_rs2_data [31:0] $end
$var reg 5 U ID_Ex_rs2_index [4:0] $end
$var reg 32 V IF_ID_Instruction [31:0] $end
$var reg 32 W IF_ID_PC [31:0] $end
$var reg 32 X Mem_WB_ALU_Result [31:0] $end
$var reg 1 Y Mem_WB_Mem_to_Reg $end
$var reg 32 Z Mem_WB_Read_Data [31:0] $end
$var reg 1 [ Mem_WB_Reg_Write $end
$var reg 5 \ Mem_WB_rd_index [4:0] $end
$var reg 32 ] alu_input1 [31:0] $end
$var reg 32 ^ alu_input2 [31:0] $end
$var reg 2 _ alu_src_a_ctrl [1:0] $end
$var reg 1 ` alu_src_ctrl $end
$var reg 32 a branch_op1 [31:0] $end
$var reg 32 b branch_op2 [31:0] $end
$var reg 1 c branch_taken $end
$var reg 1 d button_sync_0 $end
$var reg 1 e button_sync_1 $end
$var reg 2 f forward_a [1:0] $end
$var reg 2 g forward_b [1:0] $end
$var reg 32 h forwarded_rs1_data [31:0] $end
$var reg 32 i forwarded_rs2_data [31:0] $end
$var reg 1 j is_link_control $end
$var reg 1 k mem_to_reg_ctrl $end
$var reg 32 l next_pc [31:0] $end
$var reg 32 m next_pc_final [31:0] $end
$var reg 6 n o_led [5:0] $end
$var reg 32 o pc_branch [31:0] $end
$var reg 32 p pc_plus_4 [31:0] $end
$var reg 1 q reg_write_ctrl $end
$var reg 32 r reg_write_data [31:0] $end
$scope module ALU $end
$var wire 4 s alu_control [3:0] $end
$var wire 1 & clk $end
$var wire 32 t operand1 [31:0] $end
$var wire 32 u operand2 [31:0] $end
$var reg 32 v alu_result [31:0] $end
$upscope $end
$scope module ALUControl $end
$var wire 1 & clk $end
$var wire 7 w opcode [6:0] $end
$var wire 7 x funct7 [6:0] $end
$var wire 3 y funct3 [2:0] $end
$var reg 4 z alu_control [3:0] $end
$upscope $end
$scope module DMem $end
$var wire 32 { addr [31:0] $end
$var wire 1 & clk $end
$var wire 1 A mem_read $end
$var wire 1 ) mem_write $end
$var wire 32 | write_data [31:0] $end
$var reg 32 } read_data [31:0] $end
$scope begin $ivl_for_loop0 $end
$var integer 32 ~ i [31:0] $end
$upscope $end
$upscope $end
$scope module Decoder $end
$var wire 1 & clk $end
$var wire 32 !" instruction [31:0] $end
$var wire 5 "" rs2 [4:0] $end
$var wire 5 #" rs1 [4:0] $end
$var wire 5 $" rd [4:0] $end
$var wire 7 %" opcode [6:0] $end
$var wire 7 &" funct7 [6:0] $end
$var wire 3 '" funct3 [2:0] $end
$var reg 32 (" imm [31:0] $end
$upscope $end
$scope module HazardDetectionUnit $end
$var wire 1 A Ex_Mem_Mem_Read $end
$var wire 1 D Ex_Mem_Reg_Write $end
$var wire 5 )" Ex_Mem_rd [4:0] $end
$var wire 1 K ID_Ex_Mem_Read $end
$var wire 1 O ID_Ex_Reg_Write $end
$var wire 5 *" ID_Ex_rd [4:0] $end
$var wire 5 +" IF_Id_rs1 [4:0] $end
$var wire 5 ," IF_Id_rs2 [4:0] $end
$var wire 1 -" branch_data_hazard $end
$var wire 1 * is_branch $end
$var wire 1 ." load_use_hazard $end
$var wire 1 + stall $end
$upscope $end
$scope module IMem $end
$var wire 1 & clk $end
$var wire 32 /" addr [31:0] $end
$var reg 32 0" instruction [31:0] $end
$upscope $end
$scope module PC $end
$var wire 1 & clk $end
$var wire 32 1" pc_in [31:0] $end
$var wire 1 $ reset $end
$var wire 1 2" write_enable $end
$var reg 32 3" pc_out [31:0] $end
$upscope $end
$scope module RegisterFile $end
$var wire 1 & clk $end
$var wire 5 4" read_reg1 [4:0] $end
$var wire 5 5" read_reg2 [4:0] $end
$var wire 1 [ reg_write $end
$var wire 32 6" write_data [31:0] $end
$var wire 5 7" write_reg [4:0] $end
$var wire 32 8" read_data2 [31:0] $end
$var wire 32 9" read_data1 [31:0] $end
$var integer 32 :" i [31:0] $end
$upscope $end
$upscope $end
$upscope $end
$upscope $end
$enddefinitions $end
$comment Show the parameter values. $end
$dumpall
b1111010 ?
b1111011 >
b10 '
$end
#0
$dumpvars
b100000 :"
b0 9"
b0 8"
b0 7"
b0 6"
b0 5"
b0 4"
b0 3"
12"
b100 1"
b1000000000000000000000100010011 0"
b0 /"
0."
0-"
b0 ,"
b0 +"
b0 *"
b0 )"
b0 ("
b0 '"
b0 &"
b0 %"
b0 $"
b0 #"
b0 ""
b0 !"
b1000000000000 ~
bx }
b0 |
b0 {
b1111 z
b0 y
b0 x
b0 w
b0 v
b0 u
b0 t
b0 s
b0 r
0q
b100 p
b0 o
bx n
b100 m
b100 l
0k
0j
b0 i
b0 h
b0 g
b0 f
1e
1d
0c
b0 b
b0 a
0`
b0 _
b0 ^
b0 ]
b0 \
0[
b0 Z
0Y
b0 X
b0 W
b0 V
b0 U
b0 T
b0 S
b0 R
b0 Q
b0 P
0O
b0 N
0M
0L
0K
0J
bx I
0H
b0 G
b0 F
b0 E
0D
0C
0B
0A
b0 @
b1111 =
b0 <
b0 ;
b0 :
b0 9
b0 8
b1000000000000000000000100010011 7
16
05
04
03
bx 2
b0 1
b0 0
b0 /
b0 .
b0 -
b0 ,
0+
0*
0)
b0 (
0&
bx %
0$
0#
1"
bx !
$end
#1000
1#
#2000
0#
#3000
1#
#4000
0#
#5000
1#
#6000
0#
#7000
1#
#8000
0#
#9000
1#
#10000
0#
1$
#11000
b1 (
1#
#12000
0#
#13000
1`
1q
b10 =
b10 z
b10000000000 8
b10000000000 ("
b100000 9
b100000 x
b100000 &"
b10 0
b10 $"
b10011 1
b10011 w
b10011 %"
b1000 m
b1000 1"
b1000 l
b1000 p
bx Z
b0 I
b1111 G
b1111 s
b1000000000000000000000100010011 V
b1000000000000000000000100010011 !"
b100 ;
b100 /"
b100 3"
1&
b0 (
1#
#14000
0#
#15000
b1 (
1#
#16000
0#
#17000
b100000000000000011101111 7
b100000000000000011101111 0"
0&
b0 (
1#
#18000
0#
#19000
b1 (
1#
#20000
0#
#21000
b10000000000 <
b10000000000 v
1*
1j
0`
b1100 o
1c
b1100 m
b1100 1"
b10000000000 ^
b10000000000 u
b1000 8
b1000 ("
b0 9
b0 x
b0 &"
b1000 ,
b1000 ""
b1000 ,"
b1000 5"
b1 0
b1 $"
b1101111 1
b1101111 w
b1101111 %"
b1100 l
b1100 p
b1000 ;
b1000 /"
b1000 3"
b10 G
b10 s
1H
b10 Q
b10 *"
b10000000000 P
1O
b100000000000000011101111 V
b100000000000000011101111 !"
b100 W
1&
b0 (
1#
#22000
0#
#23000
b1 (
1#
#24000
0#
#25000
b1100011 7
b1100011 0"
0&
b0 (
1#
#26000
0#
#27000
b1 (
1#
#28000
0#
#29000
b0 <
b0 v
0*
0j
0q
b1111 =
b1111 z
b0 ^
b0 u
b0 8
b0 ("
b0 ,
b0 ""
b0 ,"
b0 5"
b0 0
b0 $"
b0 1
b0 w
b0 %"
b10000 m
b10000 1"
b10000 l
b0 o
b10000 p
0c
b10 E
b10 )"
b10000000000 @
b10000000000 {
1D
1J
b100 N
0H
b1 Q
b1 *"
b1000 U
b1000 P
b0 V
b0 !"
b0 W
b1100 ;
b1100 /"
b1100 3"
1&
b0 (
1#
#30000
0#
#31000
b1 (
1#
#32000
0#
#33000
b11111110000000010000000100010011 7
b11111110000000010000000100010011 0"
0&
b0 (
1#
#34000
0#
#35000
b1 (
1#
#36000
0#
#37000
06
b10000000000 a
b10000000000 /
b10000000000 9"
1`
1q
b10 =
b10 z
b10100 m
b10100 1"
b10000000000 r
b10000000000 6"
b11111111111111111111111111100000 8
b11111111111111111111111111100000 ("
b1111111 9
b1111111 x
b1111111 &"
b10 -
b10 #"
b10 +"
b10 4"
b10 0
b10 $"
b10011 1
b10011 w
b10011 %"
b10100 l
b10100 p
b10000 ;
b10000 /"
b10000 3"
b10 \
b10 7"
b10000000000 X
1[
b1 E
b1 )"
b1000 @
b1000 {
0J
b0 N
b1111 G
b1111 s
b0 Q
b0 *"
b0 U
b0 P
0O
b11111110000000010000000100010011 V
b11111110000000010000000100010011 !"
b1100 W
1&
b0 (
1#
#38000
0#
#39000
b1 (
1#
#40000
0#
#41000
b100010010111000100011 7
b100010010111000100011 0"
0&
b0 (
1#
#42000
0#
#43000
b1 (
1#
#44000
0#
#45000
b1111100000 <
b1111100000 v
04
03
b1000 b
b1000 .
b1000 8"
0q
b1000 r
b1000 6"
b11111111111111111111111111100000 ^
b11111111111111111111111111100000 u
b10000000000 ]
b10000000000 t
b10000000000 h
06
b1111100000 a
b11100 8
b11100 ("
b0 9
b0 x
b0 &"
b1 ,
b1 ""
b1 ,"
b1 5"
b10 :
b10 y
b10 '"
b11100 0
b11100 $"
b100011 1
b100011 w
b100011 %"
b11000 m
b11000 1"
b11000 l
b11000 p
b1 \
b1 7"
b1000 X
b0 E
b0 )"
b0 @
b0 {
0D
b1100 N
b10 G
b10 s
1H
b10 Q
b10 *"
b10 S
b11111111111111111111111111100000 P
b10000000000 R
1O
b100010010111000100011 V
b100010010111000100011 !"
b10000 W
b10100 ;
b10100 /"
b10100 3"
1&
b0 (
1#
#46000
0#
#47000
b1 (
1#
#48000
0#
#49000
b100000010010110000100011 7
b100000010010110000100011 0"
0&
b0 (
1#
#50000
0#
#51000
b1 (
1#
#52000
0#
#53000
b1111111100 <
b1111111100 v
b0 b
b0 .
b0 8"
b1111100000 ]
b1111100000 t
b1111100000 h
b11100 m
b11100 1"
b0 r
b0 6"
b10 f
b11100 ^
b11100 u
b1000 i
b11000 8
b11000 ("
b1000 ,
b1000 ""
b1000 ,"
b1000 5"
b11000 0
b11000 $"
b11100 l
b11100 p
b11000 ;
b11000 /"
b11000 3"
b0 \
b0 7"
b0 X
0[
b10 E
b10 )"
b1111100000 @
b1111100000 {
1D
b10000 N
b11100 Q
b11100 *"
b1 U
b11100 P
b1000 T
0O
1L
b100000010010110000100011 V
b100000010010110000100011 !"
b10100 W
1&
b0 (
1#
#54000
0#
#55000
b1 (
1#
#56000
0#
#57000
b10000000010000010000010011 7
b10000000010000010000010011 0"
0&
b0 (
1#
#58000
0#
#59000
b1 (
1#
#60000
0#
#61000
b1111111000 <
b1111111000 v
b1111100000 /
b1111100000 9"
1q
b1111100000 r
b1111100000 6"
1)
b1111100000 a
b1 f
b11000 ^
b11000 u
b1111100000 ]
b1111100000 t
b0 i
b1111100000 h
b100000 8
b100000 ("
b1 9
b1 x
b1 &"
b0 ,
b0 ""
b0 ,"
b0 5"
b0 :
b0 y
b0 '"
b1000 0
b1000 $"
b10011 1
b10011 w
b10011 %"
b100000 m
b100000 1"
b100000 l
b100000 p
b10 \
b10 7"
b1111100000 X
1[
b11100 E
b11100 )"
b1000 F
b1000 |
b1111111100 @
b1111111100 {
0D
1B
b10100 N
b11000 Q
b11000 *"
b1000 U
b11000 P
b0 T
b10000000010000010000010011 V
b10000000010000010000010011 !"
b11000 W
b11100 ;
b11100 /"
b11100 3"
1&
b0 (
1#
#62000
0#
#63000
b1 (
1#
#64000
0#
#65000
b111101000000000011110010011 7
b111101000000000011110010011 0"
0&
b0 (
1#
#66000
0#
#67000
b1 (
1#
#68000
0#
#69000
b10000000000 <
b10000000000 v
16
b0 a
b0 /
b0 9"
b100100 m
b100100 1"
b1111111100 r
b1111111100 6"
b0 f
b100000 ^
b100000 u
b1111010 8
b1111010 ("
b11 9
b11 x
b11 &"
b11010 ,
b11010 ""
b11010 ,"
b11010 5"
b0 -
b0 #"
b0 +"
b0 4"
b1111 0
b1111 $"
b100100 l
b100100 p
b100000 ;
b100000 /"
b100000 3"
b11100 \
b11100 7"
b1111111100 X
0[
b11000 E
b11000 )"
b0 F
b0 |
b1111111000 @
b1111111000 {
b11000 N
b1000 Q
b1000 *"
b0 U
b100000 P
b1111100000 R
1O
0L
b111101000000000011110010011 V
b111101000000000011110010011 !"
b11100 W
1&
b0 (
1#
#70000
0#
#71000
b1 (
1#
#72000
0#
#73000
b11111110111101000010010000100011 7
b11111110111101000010010000100011 0"
0&
b0 (
1#
#74000
0#
#75000
b1 (
1#
#76000
0#
#77000
b1111010 <
b1111010 v
0q
b1111111000 r
b1111111000 6"
0)
b1111010 b
06
b10000000000 a
b1111010 ^
b1111010 u
b0 ]
b0 t
b0 h
b11111111111111111111111111101000 8
b11111111111111111111111111101000 ("
b1111111 9
b1111111 x
b1111111 &"
b1111 ,
b1111 ""
b1111 ,"
b1111 5"
b1000 -
b1000 #"
b1000 +"
b1000 4"
b10 :
b10 y
b10 '"
b1000 0
b1000 $"
b100011 1
b100011 w
b100011 %"
b101000 m
b101000 1"
b101000 l
b101000 p
b11000 \
b11000 7"
b1111111000 X
b1000 E
b1000 )"
b10000000000 @
b10000000000 {
1D
0B
b11100 N
b1111 Q
b1111 *"
b11010 U
b0 S
b1111010 P
b0 R
b11111110111101000010010000100011 V
b11111110111101000010010000100011 !"
b100000 W
b100100 ;
b100100 /"
b100100 3"
1&
b0 (
1#
#78000
0#
#79000
b1 (
1#
#80000
0#
#81000
b11111110000001000010011000100011 7
b11111110000001000010011000100011 0"
0&
b0 (
1#
#82000
0#
#83000
b1 (
1#
#84000
0#
#85000
b1111101000 <
b1111101000 v
b10000000000 /
b10000000000 9"
b10000000000 ]
b10000000000 t
b1111010 i
b10000000000 h
b101100 m
b101100 1"
b10000000000 r
b10000000000 6"
b10 g
b1 f
b11111111111111111111111111101000 ^
b11111111111111111111111111101000 u
06
b0 b
04
03
b10000000000 a
b11111111111111111111111111101100 8
b11111111111111111111111111101100 ("
b0 ,
b0 ""
b0 ,"
b0 5"
b1100 0
b1100 $"
b101100 l
b101100 p
b101000 ;
b101000 /"
b101000 3"
b1000 \
b1000 7"
b10000000000 X
1[
b1111 E
b1111 )"
15
b1111010 @
b1111010 {
b100000 N
b1000 Q
b1000 *"
b1111 U
b1000 S
b11111111111111111111111111101000 P
0O
1L
b11111110000001000010011000100011 V
b11111110000001000010011000100011 !"
b100100 W
1&
b0 (
1#
#86000
0#
#87000
b1 (
1#
#88000
0#
#89000
b11111110110001000010011110000011 7
b11111110110001000010011110000011 0"
0&
b0 (
1#
#90000
0#
#91000
b1 (
1#
#92000
0#
#93000
b1111101100 <
b1111101100 v
1k
1q
b1111010 r
b1111010 6"
1)
b0 g
b0 f
b11111111111111111111111111101100 ^
b11111111111111111111111111101100 u
b0 i
b1100 ,
b1100 ""
b1100 ,"
b1100 5"
b1111 0
b1111 $"
b11 1
b11 w
b11 %"
b110000 m
b110000 1"
b110000 l
b110000 p
b1111 \
b1111 7"
b1111010 X
b1000 E
b1000 )"
b1111010 F
b1111010 |
05
b1111101000 @
b1111101000 {
0D
1B
b100100 N
b1100 Q
b1100 *"
b0 U
b11111111111111111111111111101100 P
b10000000000 R
b11111110110001000010011110000011 V
b11111110110001000010011110000011 !"
b101000 W
b101100 ;
b101100 /"
b101100 3"
1&
b0 (
1#
#94000
0#
#95000
b1 (
1#
#96000
0#
#97000
b101111000011110010011 7
b101111000011110010011 0"
0&
b0 (
1#
#98000
0#
#99000
b1 (
1#
#100000
0#
#101000
02"
1+
b1000 b
1."
b1000 .
b1000 8"
b1111010 /
b1111010 9"
0k
b110000 m
b110000 1"
b1111101000 r
b1111101000 6"
b1111101100 a
b1 8
b1 ("
b0 9
b0 x
b0 &"
b1 ,
b1 ""
b1 ,"
b1 5"
b1111 -
b1111 #"
b1111 +"
b1111 4"
b0 :
b0 y
b0 '"
b10011 1
b10011 w
b10011 %"
b110100 l
b110100 p
b110000 ;
b110000 /"
b110000 3"
b1000 \
b1000 7"
b1111101000 X
0[
b1100 E
b1100 )"
b0 F
b0 |
b1111101100 @
b1111101100 {
b101000 N
b1111 Q
b1111 *"
b1100 U
1M
1O
0L
1K
b101111000011110010011 V
b101111000011110010011 !"
b101100 W
1&
b0 (
1#
#102000
0#
#103000
b1 (
1#
#104000
0#
#105000
b11111110111101000010011000100011 7
b11111110111101000010011000100011 0"
0&
b0 (
1#
#106000
0#
#107000
b1 (
1#
#108000
0#
#109000
b110100 m
b110100 1"
12"
0+
0."
b1111101100 r
b1111101100 6"
0)
b1100 \
b1100 7"
b1111101100 X
b1111 E
b1111 )"
1C
1D
0B
1A
b0 N
b0 U
b0 S
b0 Q
b0 *"
0M
0O
0K
1&
b0 (
1#
#110000
0#
#111000
b1 (
1#
#112000
0#
#113000
b0 2
b0 }
0&
b0 (
1#
#114000
0#
#115000
b1 (
1#
#116000
0#
#117000
b1 <
b1 v
b0 .
b0 8"
b10000000000 /
b10000000000 9"
0q
b111000 m
b111000 1"
b0 r
b0 6"
b1 f
b1 ^
b1 u
b0 ]
b0 t
b1000 i
b0 h
04
03
b1 b
b10000000000 a
b11111111111111111111111111101100 8
b11111111111111111111111111101100 ("
b1111111 9
b1111111 x
b1111111 &"
b1111 ,
b1111 ""
b1111 ,"
b1111 5"
b1000 -
b1000 #"
b1000 +"
b1000 4"
b10 :
b10 y
b10 '"
b1100 0
b1100 $"
b100011 1
b100011 w
b100011 %"
b111000 l
b111000 p
b110100 ;
b110100 /"
b110100 3"
b1111 \
b1111 7"
b0 Z
1Y
1[
b0 E
b0 )"
0C
0D
0A
b101100 N
b1111 Q
b1111 *"
b1 U
b1111 S
b1 P
b1000 T
b1111010 R
1O
b11111110111101000010011000100011 V
b11111110111101000010011000100011 !"
b110000 W
1&
b0 (
1#
#118000
0#
#119000
b1 (
1#
#120000
0#
#121000
b11111110110001000010011110000011 7
b11111110110001000010011110000011 0"
0&
b0 (
1#
#122000
0#
#123000
b1 (
1#
#124000
0#
#125000
b1111101100 <
b1111101100 v
b10000000000 ]
b10000000000 t
b10000000000 h
1k
1q
b1111101100 r
b1111101100 6"
b10 g
b0 f
b11111111111111111111111111101100 ^
b11111111111111111111111111101100 u
b1 i
b0 b
b1100 ,
b1100 ""
b1100 ,"
b1100 5"
b1111 0
b1111 $"
b11 1
b11 w
b11 %"
b111100 m
b111100 1"
b111100 l
b111100 p
b0 \
b0 7"
0Y
0[
b1111 E
b1111 )"
b1000 F
b1000 |
b1 @
b1 {
1D
b110000 N
b1100 Q
b1100 *"
b1111 U
b1000 S
b11111111111111111111111111101100 P
b0 T
b10000000000 R
0O
1L
b11111110110001000010011110000011 V
b11111110110001000010011110000011 !"
b110100 W
b111000 ;
b111000 /"
b111000 3"
1&
b0 (
1#
#126000
0#
#127000
b1 (
1#
#128000
0#
#129000
b11111111111101111100011100010011 7
b11111111111101111100011100010011 0"
0&
b0 (
1#
#130000
0#
#131000
b1 (
1#
#132000
0#
#133000
02"
1+
1."
b1 /
b1 9"
0k
b1111 =
b1111 z
b111100 m
b111100 1"
b1 r
b1 6"
1)
b0 i
b0 g
b1111101100 a
b11111111111111111111111111111111 8
b11111111111111111111111111111111 ("
b11111 ,
b11111 ""
b11111 ,"
b11111 5"
b1111 -
b1111 #"
b1111 +"
b1111 4"
b100 :
b100 y
b100 '"
b1110 0
b1110 $"
b10011 1
b10011 w
b10011 %"
b1000000 l
b1000000 p
b111100 ;
b111100 /"
b111100 3"
b1111 \
b1111 7"
b1 X
1[
b1100 E
b1100 )"
b1 F
b1 |
b1111101100 @
b1111101100 {
0D
1B
b110100 N
b1111 Q
b1111 *"
b1100 U
1M
1O
0L
1K
b11111111111101111100011100010011 V
b11111111111101111100011100010011 !"
b111000 W
1&
b0 (
1#
#134000
0#
#135000
b1 (
1#
#136000
0#
#137000
b11111110100001000010011110000011 7
b11111110100001000010011110000011 0"
0&
b0 (
1#
#138000
0#
#139000
b1 (
1#
#140000
0#
#141000
b1000000 m
b1000000 1"
12"
0+
0."
b1111101100 r
b1111101100 6"
0)
b1100 \
b1100 7"
b1111101100 X
0[
b1111 E
b1111 )"
b0 F
b0 |
1C
1D
0B
1A
b0 N
b0 U
b0 S
b0 Q
b0 *"
0M
0O
0K
1&
b0 (
1#
#142000
0#
#143000
b1 (
1#
#144000
0#
#145000
b1 2
b1 }
0&
b0 (
1#
#146000
0#
#147000
b1 (
1#
#148000
0#
#149000
b0 <
b0 v
16
b10000000000 b
b10000000000 .
b10000000000 8"
b10000000000 /
b10000000000 9"
1k
b10 =
b10 z
b1000100 m
b1000100 1"
b1 r
b1 6"
b1 f
b11111111111111111111111111111111 ^
b11111111111111111111111111111111 u
b1 ]
b1 t
b1 h
b10000000000 a
b11111111111111111111111111101000 8
b11111111111111111111111111101000 ("
b1000 ,
b1000 ""
b1000 ,"
b1000 5"
b1000 -
b1000 #"
b1000 +"
b1000 4"
b10 :
b10 y
b10 '"
b1111 0
b1111 $"
b11 1
b11 w
b11 %"
b1000100 l
b1000100 p
b1000000 ;
b1000000 /"
b1000000 3"
b1111 \
b1111 7"
b1 Z
1Y
1[
b0 E
b0 )"
0C
0D
0A
b111000 N
b1111 G
b1111 s
b1110 Q
b1110 *"
b11111 U
b1111 S
b11111111111111111111111111111111 P
b1 R
1O
b11111110100001000010011110000011 V
b11111110100001000010011110000011 !"
b111100 W
1&
b0 (
1#
#150000
0#
#151000
b1 (
1#
#152000
0#
#153000
b111001111010000000100011 7
b111001111010000000100011 0"
0&
b0 (
1#
#154000
0#
#155000
b1 (
1#
#156000
0#
#157000
b1111101000 <
b1111101000 v
02"
1+
b10000000000 ]
b10000000000 t
b10000000000 h
1."
b0 .
b0 8"
b1 /
b1 9"
0k
0q
b1111101100 r
b1111101100 6"
b0 b
06
04
03
b1111101000 a
b0 f
b11111111111111111111111111101000 ^
b11111111111111111111111111101000 u
b10000000000 i
b0 8
b0 ("
b0 9
b0 x
b0 &"
b1110 ,
b1110 ""
b1110 ,"
b1110 5"
b1111 -
b1111 #"
b1111 +"
b1111 4"
b0 0
b0 $"
b100011 1
b100011 w
b100011 %"
b1000100 m
b1000100 1"
b1001000 l
b1001000 p
b0 \
b0 7"
0Y
0[
b1110 E
b1110 )"
b0 @
b0 {
1D
b111100 N
b10 G
b10 s
b1111 Q
b1111 *"
b1000 U
b1000 S
b11111111111111111111111111101000 P
b10000000000 T
b10000000000 R
1M
1K
b111001111010000000100011 V
b111001111010000000100011 !"
b1000000 W
b1000100 ;
b1000100 /"
b1000100 3"
1&
b0 (
1#
#158000
0#
#159000
b1 (
1#
#160000
0#
#161000
b11111110010111111111000001101111 7
b11111110010111111111000001101111 0"
0&
b0 (
1#
#162000
0#
#163000
b1 (
1#
#164000
0#
#165000
b1001000 m
b1001000 1"
12"
0+
0."
b0 r
b0 6"
b1110 \
b1110 7"
b0 X
1[
b1111 E
b1111 )"
b10000000000 F
b10000000000 |
b1111101000 @
b1111101000 {
1C
1A
b0 N
b0 U
b0 S
b0 Q
b0 *"
0M
0O
0K
1&
b0 (
1#
#166000
0#
#167000
b1 (
1#
#168000
0#
#169000
b1111010 2
b1111010 }
0&
b0 (
1#
#170000
0#
#171000
b1 (
1#
#172000
0#
#173000
b1111010 <
b1111010 v
16
1*
b0 /
b0 9"
1j
0`
1q
b101000 o
1c
b1111010 r
b1111010 6"
b0 a
b1 f
b0 ^
b0 u
b1111010 ]
b1111010 t
b0 i
b1111010 h
b11111111111111111111111111100100 8
b11111111111111111111111111100100 ("
b1111111 9
b1111111 x
b1111111 &"
b101 ,
b101 ""
b101 ,"
b101 5"
b11111 -
b11111 #"
b11111 +"
b11111 4"
b111 :
b111 y
b111 '"
b1101111 1
b1101111 w
b1101111 %"
b101000 m
b101000 1"
b101000 l
b1001100 p
b1111 \
b1111 7"
b1111101000 X
b1111010 Z
1Y
b0 E
b0 )"
0C
0D
0A
b1000000 N
b1110 U
b1111 S
b0 P
b0 T
b1 R
1L
b11111110010111111111000001101111 V
b11111110010111111111000001101111 !"
b1000100 W
b1001000 ;
b1001000 /"
b1001000 3"
1&
b0 (
1#
#174000
0#
#175000
b1 (
1#
#176000
0#
#177000
bx 7
bx 0"
0&
b0 (
1#
#178000
0#
#179000
b1 (
1#
#180000
0#
#181000
b0 <
b0 v
0*
b0 ]
b0 t
b0 h
0j
0q
b1111 =
b1111 z
b101100 m
b101100 1"
b1111101000 r
b1111101000 6"
b0 f
b0 8
b0 ("
b0 9
b0 x
b0 &"
b0 ,
b0 ""
b0 ,"
b0 5"
b0 -
b0 #"
b0 +"
b0 4"
b0 :
b0 y
b0 '"
b0 1
b0 w
b0 %"
b101100 l
b0 o
b101100 p
0c
b101000 ;
b101000 /"
b101000 3"
b0 \
b0 7"
0Y
0[
b0 F
b0 |
15
b1111010 @
b1111010 {
1B
1J
b1000100 N
0H
b101 U
b11111 S
b11111111111111111111111111100100 P
b0 R
1O
0L
b0 V
b0 !"
b0 W
1&
b0 (
1#
#182000
0#
#183000
b1 (
1#
#184000
0#
#185000
b11111110110001000010011110000011 7
b11111110110001000010011110000011 0"
0&
b0 (
1#
#186000
0#
#187000
b1 (
1#
#188000
0#
#189000
06
b10000000000 a
b10000000000 /
b10000000000 9"
1k
1`
1q
b10 =
b10 z
b1111010 r
b1111010 6"
b11111111111111111111111111101100 8
b11111111111111111111111111101100 ("
b1111111 9
b1111111 x
b1111111 &"
b1100 ,
b1100 ""
b1100 ,"
b1100 5"
b1000 -
b1000 #"
b1000 +"
b1000 4"
b10 :
b10 y
b10 '"
b1111 0
b1111 $"
b11 1
b11 w
b11 %"
b110000 m
b110000 1"
b110000 l
b110000 p
b1111010 X
05
b1001000 @
b1001000 {
1D
0B
0J
b0 N
b1111 G
b1111 s
b0 U
b0 S
b0 P
0O
b11111110110001000010011110000011 V
b11111110110001000010011110000011 !"
b101000 W
b101100 ;
b101100 /"
b101100 3"
b111111 !
b111111 %
b111111 n
1&
b0 (
1#
#190000
0#
#191000
b1 (
1#
#192000
0#
#193000
b101111000011110010011 7
b101111000011110010011 0"
0&
b0 (
1#
#194000
0#
#195000
b1 (
1#
#196000
0#
#197000
b1111101100 <
b1111101100 v
02"
1+
04
03
b1000 b
1."
b1000 .
b1000 8"
b1111010 /
b1111010 9"
0k
b110000 m
b110000 1"
b1001000 r
b1001000 6"
b11111111111111111111111111101100 ^
b11111111111111111111111111101100 u
b10000000000 ]
b10000000000 t
b10000000000 h
06
b1111101100 a
b1 8
b1 ("
b0 9
b0 x
b0 &"
b1 ,
b1 ""
b1 ,"
b1 5"
b1111 -
b1111 #"
b1111 +"
b1111 4"
b0 :
b0 y
b0 '"
b10011 1
b10011 w
b10011 %"
b110100 l
b110100 p
b110000 ;
b110000 /"
b110000 3"
b1001000 X
1[
b0 @
b0 {
0D
b101000 N
b10 G
b10 s
1H
b1111 Q
b1111 *"
b1100 U
b1000 S
b11111111111111111111111111101100 P
b10000000000 R
1M
1O
1K
b101111000011110010011 V
b101111000011110010011 !"
b101100 W
1&
b0 (
1#
#198000
0#
#199000
b1 (
1#
#200000
0#
#201000
b11111110111101000010011000100011 7
b11111110111101000010011000100011 0"
0&
b0 (
1#
#202000
0#
#203000
b1 (
1#
#204000
0#
#205000
b110100 m
b110100 1"
12"
0+
0."
b0 r
b0 6"
b0 X
0[
b1111 E
b1111 )"
b1111101100 @
b1111101100 {
1C
1D
1A
b0 N
b0 U
b0 S
b0 Q
b0 *"
0M
0O
0K
1&
b0 (
1#
#206000
0#
#207000
b1 (
1#
#208000
0#
